{
  "project_info": {
    "project_number": "328988534396",
    "firebase_url": "https://carefully-38a98.firebaseio.com",
    "project_id": "carefully-38a98",
    "storage_bucket": "carefully-38a98.appspot.com"
  },
  "client": [
    {
      "client_info": {
        "mobilesdk_app_id": "1:328988534396:android:10733bf6861a12c3",
        "android_client_info": {
          "package_name": "com.bytelabapps.barcodescanner"
        }
      },
      "oauth_client": [
        {
          "client_id": "328988534396-17bor1f9oj9l0one96q0u8f8mqv7ff5n.apps.googleusercontent.com",
          "client_type": 1,
          "android_info": {
            "package_name": "com.bytelabapps.barcodescanner",
            "certificate_hash": "546a84bafd16043f2b167e4640ef051a49338155"
          }
        },
        {
          "client_id": "328988534396-fh16o8njbpqdtqa3a4vbn6dlpphnobj4.apps.googleusercontent.com",
          "client_type": 3
        }
      ],
      "api_key": [
        {
          "current_key": "AIzaSyBau-bejzvKys-8vnhNM108-yERywl-GG8"
        }
      ],
      "services": {
        "analytics_service": {
          "status": 1
        },
        "appinvite_service": {
          "status": 2,
          "other_platform_oauth_client": [
            {
              "client_id": "328988534396-fh16o8njbpqdtqa3a4vbn6dlpphnobj4.apps.googleusercontent.com",
              "client_type": 3
            }
          ]
        },
        "ads_service": {
          "status": 2
        }
      }
    }
  ],
  "configuration_version": "1"
}